GLM
…
<img src="../media/RT.png" width="800" height="500" />

---
## Example

```r
mortality <- mortality %>% 
  mutate(IQ_c = IQ - mean(IQ))
mortality
```

```
## # A tibble: 300 × 6
##     ...1 Risky.behavior premature.d NOT.premature    IQ   IQ_c
##    <dbl>          <dbl> <chr>               <dbl> <dbl>  <dbl>
##  1     1             19 normal                  1    22  5.43 
##  2     2             18 normal                  1    22  5.43 
##  3     3             21 normal                  1    21  4.43 
##  4     4             17 normal                  1    22  5.43 
##  5     5             18 normal                  1    19  2.43 
##  6     6             22 premature               0    19  2.43 
##  7     7             18 normal                  1    16 -0.573
##  8     8             11 premature               0    15 -1.57 
##  9     9             21 normal                  1    16 -0.573
## 10    10             20 normal                  1    19  2.43 
## # … with 290 more rows
```
…
---
.pull-left[

```r
mortality %>%
  data_grid(IQ_c, .model = mortality) %>%
  add_epred_draws(glm.4) %>% 
  ungroup() %>% 
  select(.epred)
```

```
## # A tibble: 84,000 × 1
##    .epred
##     <dbl>
##  1  0.538
##  2  0.373
##  3  0.910
##  4  0.881
##  5  0.287
##  6  0.687
##  7  0.387
##  8  0.822
##  9  0.816
## 10  0.443
## # … with 83,990 more rows
```
]

.pull-right[

```r
mortality %>%
  data_grid(IQ_c, .model = mortality) %>%
  add_linpred_draws(glm.4) %>% 
  ungroup() %>% 
  select(.linpred)
```

```
## # A tibble: 84,000 × 1
##    .linpred
##       <dbl>
##  1    0.152
##  2   -0.518
##  3    2.31 
##  4    2.00 
##  5   -0.909
##  6    0.788
##  7   -0.462
##  8    1.53 
##  9    1.49 
## 10   -0.229
## # … with 83,990 more rows
```
…
career <- rep(NA, n)  # empty vector of choices for each individual
for (i in 1:n) {
    score     <- 0.5 * (1:3) + b * family_income[i]
    p         <- softmax(score[1], score[2], score[3])
    career[i] <- sample(1:3, size = 1, prob = p)
}

d <-
  tibble(career = career) %>% 
  mutate(family_income = family_income)
d
```

```
## # A tibble: 500 × 2
##    career family_income
##     <int>         <dbl>
##  1      3        0.354 
##  2      3        0.366 
##  3      3        0.287 
##  4      1        0.0800
##  5      2        0.365 
##  6      3        0.178 
##  7      3        0.536 
##  8      3        0.504 
##  9      3        0.945 
## 10      3        0.341 
## # … with 490 more rows
```
…
