Information 2
…
]

.pull-right[
Revisiting grid approximation from week 2, we hand calculated a regression likelihood.

```r
library(psychTools)
galton.data <- galton
grid <-
  crossing(mu = seq(from = 66, to = 69, length.out = 200), sigma = seq(from = 2, to = 3, length.out = 200))
grid
```

```
## # A tibble: 40,000 × 2
##       mu sigma
##    <dbl> <dbl>
##  1    66  2   
##  2    66  2.01
##  3    66  2.01
##  4    66  2.02
##  5    66  2.02
##  6    66  2.03
##  7    66  2.03
##  8    66  2.04
##  9    66  2.04
## 10    66  2.05
## # … with 39,990 more rows
```
…
p_grid <-
  grid %>% 
  mutate(log_likelihood = map2(mu, sigma, grid_function)) %>%
  unnest(log_likelihood)
  p_grid
```

]

---

We averaged across all 928 participants for each spot in the grid to get the average log-likelihood for each grid spot 

```
## # A tibble: 40,000 × 3
##       mu sigma log_likelihood
##    <dbl> <dbl>          <dbl>
##  1    66  2            -2737.
##  2    66  2.01         -2733.
##  3    66  2.01         -2729.
##  4    66  2.02         -2725.
##  5    66  2.02         -2721.
##  6    66  2.03         -2718.
##  7    66  2.03         -2714.
##  8    66  2.04         -2710.
##  9    66  2.04         -2707.
## 10    66  2.05         -2703.
## # … with 39,990 more rows
```
…
