MLM
…
]

.pull-right[

```r
library(posterior)
posterior::summarise_draws(mlm.1)
```

```
## # A tibble: 98 × 10
##    variable        mean   median      sd     mad      q5      q95  rhat ess_bulk
##    <chr>          <dbl>    <dbl>   <dbl>   <dbl>   <dbl>    <dbl> <dbl>    <dbl>
##  1 b_Intercept  1.89e-1  1.89e-1 0.00682 0.00667  0.178   2.01e-1  1.00    7063.
##  2 sd_ID__Int…  5.65e-2  5.61e-2 0.00574 0.00565  0.0477  6.64e-2  1.00    5578.
##  3 sigma        4.74e-2  4.73e-2 0.00296 0.00294  0.0429  5.25e-2  1.00   10871.
##  4 r_ID[6,Int…  5.66e-4  4.39e-4 0.0256  0.0257  -0.0414  4.30e-2  1.00   28931.
##  5 r_ID[29,In… -4.81e-2 -4.87e-2 0.0293  0.0291  -0.0964  8.85e-4  1.00   29351.
##  6 r_ID[34,In… -6.14e-2 -6.14e-2 0.0293  0.0291  -0.110  -1.31e-2  1.00   27059.
##  7 r_ID[36,In… -2.18e-2 -2.18e-2 0.0291  0.0290  -0.0700  2.61e-2  1.00   33499.
##  8 r_ID[37,In… -2.94e-3 -2.80e-3 0.0253  0.0251  -0.0447  3.89e-2  1.00   29002.
##  9 r_ID[48,In…  2.34e-2  2.31e-2 0.0254  0.0253  -0.0182  6.50e-2  1.00   29760.
## 10 r_ID[53,In…  3.85e-4  1.95e-4 0.0297  0.0297  -0.0485  4.94e-2  1.00   32232.
## # … with 88 more rows, and 1 more variable: ess_tail <dbl>
```
…
```r
mlm.1 %>%
  spread_draws(r_ID[ID, term]) 
```

```
## Warning: `gather_()` was deprecated in tidyr 1.2.0.
## Please use `gather()` instead.
## This warning is displayed once every 8 hours.
## Call `lifecycle::last_lifecycle_warnings()` to see where this warning was generated.
```

```
## # A tibble: 1,456,000 × 6
## # Groups:   ID, term [91]
##       ID term          r_ID .chain .iteration .draw
##    <int> <chr>        <dbl>  <int>      <int> <int>
##  1     6 Intercept -0.0256       1          1     1
##  2     6 Intercept  0.00522      1          2     2
##  3     6 Intercept -0.00908      1          3     3
##  4     6 Intercept  0.0119       1          4     4
##  5     6 Intercept -0.00512      1          5     5
##  6     6 Intercept -0.00672      1          6     6
##  7     6 Intercept  0.0224       1          7     7
##  8     6 Intercept -0.0432       1          8     8
##  9     6 Intercept  0.0330       1          9     9
## 10     6 Intercept -0.0137       1         10    10
## # … with 1,455,990 more rows
```
…
---

```r
mlm.1 %>%
  spread_draws(r_ID[ID]) 
```

```
## Warning: Expected 1 pieces. Additional pieces discarded in 91 rows [1, 2, 3, 4,
## 5, 6, 7, 8, 9, 10, 11, 12, 13, 14, 15, 16, 17, 18, 19, 20, ...].
```

```
## # A tibble: 1,456,000 × 5
## # Groups:   ID [91]
##       ID     r_ID .chain .iteration .draw
##    <int>    <dbl>  <int>      <int> <int>
##  1     6 -0.0256       1          1     1
##  2     6  0.00522      1          2     2
##  3     6 -0.00908      1          3     3
##  4     6  0.0119       1          4     4
##  5     6 -0.00512      1          5     5
##  6     6 -0.00672      1          6     6
##  7     6  0.0224       1          7     7
##  8     6 -0.0432       1          8     8
##  9     6  0.0330       1          9     9
## 10     6 -0.0137       1         10    10
## # … with 1,455,990 more rows
```

---

```r
mlm.1 %>%
  spread_draws(r_ID[ID, term]) %>%
 median_qi()
```

```
## # A tibble: 91 × 8
##       ID term           r_ID   .lower   .upper .width .point .interval
##    <int> <chr>         <dbl>    <dbl>    <dbl>  <dbl> <chr>  <chr>    
##  1     6 Intercept  0.000439 -0.0486   0.0509    0.95 median qi       
##  2    29 Intercept -0.0487   -0.106    0.0105    0.95 median qi       
##  3    34 Intercept -0.0614   -0.119   -0.00335   0.95 median qi       
##  4    36 Intercept -0.0218   -0.0794   0.0352    0.95 median qi       
##  5    37 Intercept -0.00280  -0.0523   0.0466    0.95 median qi       
##  6    48 Intercept  0.0231   -0.0266   0.0741    0.95 median qi       
##  7    53 Intercept  0.000195 -0.0571   0.0587    0.95 median qi       
##  8    54 Intercept  0.0451   -0.00473  0.0931    0.95 median qi       
##  9    58 Intercept  0.0369   -0.0132   0.0854    0.95 median qi       
## 10    61 Intercept -0.0742   -0.132   -0.0159    0.95 median qi       
## # … with 81 more rows
```
…
---

```r
mlm.1 %>%
  spread_draws(b_Intercept, r_ID[ID, term]) 
```

```
## # A tibble: 1,456,000 × 7
## # Groups:   ID, term [91]
##    .chain .iteration .draw b_Intercept    ID term         r_ID
##     <int>      <int> <int>       <dbl> <int> <chr>       <dbl>
##  1      1          1     1       0.191     6 Intercept -0.0256
##  2      1          1     1       0.191    29 Intercept -0.0652
##  3      1          1     1       0.191    34 Intercept -0.0327
##  4      1          1     1       0.191    36 Intercept -0.0205
##  5      1          1     1       0.191    37 Intercept -0.0213
##  6      1          1     1       0.191    48 Intercept  0.0379
##  7      1          1     1       0.191    53 Intercept -0.0189
##  8      1          1     1       0.191    54 Intercept  0.0788
##  9      1          1     1       0.191    58 Intercept  0.0550
## 10      1          1     1       0.191    61 Intercept -0.0949
## # … with 1,455,990 more rows
```

---

```r
mlm.1 %>%
  spread_draws(b_Intercept, r_ID[ID, term]) %>% 
   mutate(person_I = b_Intercept + r_ID) 
```

```
## # A tibble: 1,456,000 × 8
## # Groups:   ID, term [91]
##    .chain .iteration .draw b_Intercept    ID term         r_ID person_I
##     <int>      <int> <int>       <dbl> <int> <chr>       <dbl>    <dbl>
##  1      1          1     1       0.191     6 Intercept -0.0256   0.166 
##  2      1          1     1       0.191    29 Intercept -0.0652   0.126 
##  3      1          1     1       0.191    34 Intercept -0.0327   0.159 
##  4      1          1     1       0.191    36 Intercept -0.0205   0.171 
##  5      1          1     1       0.191    37 Intercept -0.0213   0.170 
##  6      1          1     1       0.191    48 Intercept  0.0379   0.229 
##  7      1          1     1       0.191    53 Intercept -0.0189   0.172 
##  8      1          1     1       0.191    54 Intercept  0.0788   0.270 
##  9      1          1     1       0.191    58 Intercept  0.0550   0.246 
## 10      1          1     1       0.191    61 Intercept -0.0949   0.0963
## # … with 1,455,990 more rows
```
…
---

```r
mlm.4 %>%
  spread_draws(r_ID[ID,term]) 
```

```
## # A tibble: 2,184,000 × 6
## # Groups:   ID, term [182]
##       ID term          r_ID .chain .iteration .draw
##    <int> <chr>        <dbl>  <int>      <int> <int>
##  1     6 Intercept -0.0295       1          1     1
##  2     6 Intercept  0.0729       1          2     2
##  3     6 Intercept  0.0235       1          3     3
##  4     6 Intercept  0.00862      1          4     4
##  5     6 Intercept  0.00694      1          5     5
##  6     6 Intercept -0.0274       1          6     6
##  7     6 Intercept -0.0208       1          7     7
##  8     6 Intercept  0.0284       1          8     8
##  9     6 Intercept  0.0561       1          9     9
## 10     6 Intercept  0.0238       1         10    10
## # … with 2,183,990 more rows
```

---

```r
mlm.4 %>%
  spread_draws(b_time, r_ID[ID, term]) %>%
  filter(term == "time") %>% 
  mutate(person_t = b_time + r_ID) %>% 
 median_qi()
```

```
## # A tibble: 91 × 14
## # Groups:   ID [91]
##       ID term    b_time b_time.lower b_time.upper     r_ID r_ID.lower r_ID.upper
##    <int> <chr>    <dbl>        <dbl>        <dbl>    <dbl>      <dbl>      <dbl>
##  1     6 time  -0.00286     -0.00724      0.00143  1.68e-5   -0.00983    0.00969
##  2    29 time  -0.00286     -0.00724      0.00143 -3.37e-4   -0.0127     0.00815
##  3    34 time  -0.00286     -0.00724      0.00143 -6.28e-4   -0.0147     0.00716
##  4    36 time  -0.00286     -0.00724      0.00143  1.57e-4   -0.00833    0.0118 
##  5    37 time  -0.00286     -0.00724      0.00143 -2.08e-4   -0.0116     0.00788
##  6    48 time  -0.00286     -0.00724      0.00143 -1.91e-5   -0.0105     0.00902
##  7    53 time  -0.00286     -0.00724      0.00143 -1.86e-4   -0.0119     0.00804
##  8    54 time  -0.00286     -0.00724      0.00143  1.80e-4   -0.00837    0.0113 
##  9    58 time  -0.00286     -0.00724      0.00143  5.68e-4   -0.00672    0.0154 
## 10    61 time  -0.00286     -0.00724      0.00143 -1.28e-4   -0.0112     0.0101 
## # … with 81 more rows, and 6 more variables: person_t <dbl>,
## #   person_t.lower <dbl>, person_t.upper <dbl>, .width <dbl>, .point <chr>,
## #   .interval <chr>
```
…
