grabbag
…
```
##  [1] "b_Y_Intercept" "b_M_Intercept" "b_Y_X"         "b_Y_M"        
##  [5] "b_M_X"         "sigma_Y"       "sigma_M"       "lp__"         
##  [9] "accept_stat__" "stepsize__"    "treedepth__"   "n_leapfrog__" 
## [13] "divergent__"   "energy__"
```

```r
med.1 %>% 
  spread_draws(b_Y_M, b_M_X,b_Y_X) 
```

```
## # A tibble: 4,000 × 6
##    .chain .iteration .draw b_Y_M b_M_X   b_Y_X
##     <int>      <int> <int> <dbl> <dbl>   <dbl>
##  1      1          1     1 0.745 0.614  0.114 
##  2      1          2     2 0.770 0.503  0.105 
##  3      1          3     3 0.863 0.515 -0.0769
##  4      1          4     4 0.883 0.455  0.0163
##  5      1          5     5 0.673 0.525  0.193 
##  6      1          6     6 0.720 0.493  0.0510
##  7      1          7     7 0.794 0.547  0.167 
##  8      1          8     8 0.668 0.668  0.110 
##  9      1          9     9 0.835 0.640 -0.0576
## 10      1         10    10 0.807 0.486  0.147 
## # … with 3,990 more rows
```
…
```r
melsm.2 %>% 
spread_draws(b_sigma_Intercept,r_record_id__sigma[ID, term]) 
```

```
## Warning: `gather_()` was deprecated in tidyr 1.2.0.
## Please use `gather()` instead.
## This warning is displayed once every 8 hours.
## Call `lifecycle::last_lifecycle_warnings()` to see where this warning was generated.
```

```
## # A tibble: 1,544,000 × 7
## # Groups:   ID, term [193]
##    .chain .iteration .draw b_sigma_Intercept    ID term      r_record_id__sigma
##     <int>      <int> <int>             <dbl> <int> <chr>                  <dbl>
##  1      1          1     1            -0.805     1 Intercept             0.366 
##  2      1          1     1            -0.805     2 Intercept            -1.20  
##  3      1          1     1            -0.805     3 Intercept             0.195 
##  4      1          1     1            -0.805     4 Intercept             0.498 
##  5      1          1     1            -0.805     5 Intercept            -0.876 
##  6      1          1     1            -0.805     6 Intercept             0.258 
##  7      1          1     1            -0.805     7 Intercept             0.0512
##  8      1          1     1            -0.805     8 Intercept            -0.917 
##  9      1          1     1            -0.805     9 Intercept            -0.476 
## 10      1          1     1            -0.805    10 Intercept            -0.269 
## # … with 1,543,990 more rows
```
…
---

```r
imp.2 %>% 
  spread_draws(Ymi_chl[ID]) 
```

```
## # A tibble: 40,000 × 5
## # Groups:   ID [10]
##       ID Ymi_chl .chain .iteration .draw
##    <int>   <dbl>  <int>      <int> <int>
##  1     1    217.      1          1     1
##  2     1    209.      1          2     2
##  3     1    184.      1          3     3
##  4     1    171.      1          4     4
##  5     1    238.      1          5     5
##  6     1    205.      1          6     6
##  7     1    126.      1          7     7
##  8     1    181.      1          8     8
##  9     1    199.      1          9     9
## 10     1    206.      1         10    10
## # … with 39,990 more rows
```
…
