Week 2
…
]

.right-pull[
Define my grid

```r
grid <-
  crossing(mu = seq(from = 66, to = 69, length.out = 200), sigma = seq(from = 2, to = 3, length.out = 200))
grid
```

```
## # A tibble: 40,000 × 2
##       mu sigma
##    <dbl> <dbl>
##  1    66  2   
##  2    66  2.01
##  3    66  2.01
##  4    66  2.02
##  5    66  2.02
##  6    66  2.03
##  7    66  2.03
##  8    66  2.04
##  9    66  2.04
## 10    66  2.05
## # … with 39,990 more rows
```
…
.pull-right[
1. After defining the grid space we need to calculate the likelihood (are these numbers likely or not, given some distribution)

2. Likelihood of our data (each child's height) assuming each part of our grid is true. So if we take the first line of our grid (mu = 66, sigma = 2) we can see how likely each child (all 928) by dnorm(height, 66, 2) 

]

---
### Grid approximation

```
## # A tibble: 40,000 × 7
##       mu sigma log_likelihood prior_mu prior_sigma product probability
##    <dbl> <dbl>          <dbl>    <dbl>       <dbl>   <dbl>       <dbl>
##  1    66  2            -2737.    -2.61       -3.49  -2743.   1.98e-245
##  2    66  2.01         -2733.    -2.61       -3.49  -2739.   9.61e-244
##  3    66  2.01         -2729.    -2.61       -3.49  -2735.   4.48e-242
##  4    66  2.02         -2725.    -2.61       -3.49  -2731.   2.00e-240
##  5    66  2.02         -2721.    -2.61       -3.49  -2727.   8.61e-239
##  6    66  2.03         -2718.    -2.61       -3.49  -2724.   3.56e-237
##  7    66  2.03         -2714.    -2.61       -3.49  -2720.   1.42e-235
##  8    66  2.04         -2710.    -2.61       -3.49  -2716.   5.41e-234
##  9    66  2.04         -2707.    -2.61       -3.49  -2713.   1.99e-232
## 10    66  2.05         -2703.    -2.61       -3.49  -2709.   7.07e-231
## # … with 39,990 more rows
```
…
```
##  [1] "b_Intercept"   "b_parent_c"    "sigma"         "lp__"         
##  [5] "accept_stat__" "stepsize__"    "treedepth__"   "n_leapfrog__" 
##  [9] "divergent__"   "energy__"
```

```r
post.tidy <- m.2 %>% 
spread_draws(b_Intercept, b_parent_c)
post.tidy
```

```
## # A tibble: 1,000 × 5
##    .chain .iteration .draw b_Intercept b_parent_c
##     <int>      <int> <int>       <dbl>      <dbl>
##  1      1          1     1        68.1      0.631
##  2      1          2     2        68.1      0.661
##  3      1          3     3        68.1      0.617
##  4      1          4     4        68.1      0.590
##  5      1          5     5        68.1      0.667
##  6      1          6     6        68.1      0.564
##  7      1          7     7        68.1      0.696
##  8      1          8     8        68.0      0.684
##  9      1          9     9        68.0      0.644
## 10      1         10    10        68.1      0.678
## # … with 990 more rows
```
…
---
## fitted values

Much like in regular regression, we may be interested in the predicted values (Y-hats) at certain values of X. These Y-hats are called fitted values. We use them a lot to calculate residuals and other fit metrics. This gives us the predicted mean at a given X

```r
library(broom)
augment(lm(child ~ parent, galton.data))
```

```
## # A tibble: 928 × 8
##    child parent .fitted .resid    .hat .sigma .cooksd .std.resid
##    <dbl>  <dbl>   <dbl>  <dbl>   <dbl>  <dbl>   <dbl>      <dbl>
##  1  61.7   70.5    69.5  -7.81 0.00270   2.22 0.0165       -3.49
##  2  61.7   68.5    68.2  -6.51 0.00109   2.23 0.00462      -2.91
##  3  61.7   65.5    66.3  -4.57 0.00374   2.23 0.00787      -2.05
##  4  61.7   64.5    65.6  -3.93 0.00597   2.24 0.00931      -1.76
##  5  61.7   64      65.3  -3.60 0.00735   2.24 0.00966      -1.62
##  6  62.2   67.5    67.6  -5.37 0.00130   2.23 0.00374      -2.40
##  7  62.2   67.5    67.6  -5.37 0.00130   2.23 0.00374      -2.40
##  8  62.2   67.5    67.6  -5.37 0.00130   2.23 0.00374      -2.40
##  9  62.2   66.5    66.9  -4.72 0.00218   2.23 0.00487      -2.11
## 10  62.2   66.5    66.9  -4.72 0.00218   2.23 0.00487      -2.11
## # … with 918 more rows
```
…
```r
galton.data %>% 
 add_fitted_draws(m.2)
```

```
## Warning: `fitted_draws` and `add_fitted_draws` are deprecated as their names were confusing.
## Use [add_]epred_draws() to get the expectation of the posterior predictive.
## Use [add_]linpred_draws() to get the distribution of the linear predictor.
## For example, you used [add_]fitted_draws(..., scale = "response"), which
## means you most likely want [add_]epred_draws(...).
```

```
## # A tibble: 928,000 × 8
## # Groups:   parent, child, parent_c, .row [928]
##    parent child parent_c  .row .chain .iteration .draw .value
##     <dbl> <dbl>    <dbl> <int>  <int>      <int> <int>  <dbl>
##  1   70.5  61.7     2.19     1     NA         NA     1   69.5
##  2   70.5  61.7     2.19     1     NA         NA     2   69.6
##  3   70.5  61.7     2.19     1     NA         NA     3   69.4
##  4   70.5  61.7     2.19     1     NA         NA     4   69.4
##  5   70.5  61.7     2.19     1     NA         NA     5   69.6
##  6   70.5  61.7     2.19     1     NA         NA     6   69.3
##  7   70.5  61.7     2.19     1     NA         NA     7   69.6
##  8   70.5  61.7     2.19     1     NA         NA     8   69.5
##  9   70.5  61.7     2.19     1     NA         NA     9   69.4
## 10   70.5  61.7     2.19     1     NA         NA    10   69.6
## # … with 927,990 more rows
```
…
