Regression adv
…
Each chain is independent of other chains so as to ensure that the procedure can replicate 

---
## The posterior is made of samples

```r
library(tidybayes)
p.h1 <- h.1 %>% 
spread_draws(b_Intercept, b_happy_c, sigma)
p.h1
```

```
## # A tibble: 1,000 × 6
##    .chain .iteration .draw b_Intercept b_happy_c sigma
##     <int>      <int> <int>       <dbl>     <dbl> <dbl>
##  1      1          1     1        8.73    0.331   2.69
##  2      1          2     2        8.36    0.403   2.65
##  3      1          3     3        8.66    0.256   2.95
##  4      1          4     4        8.15    0.415   2.71
##  5      1          5     5        8.88    0.314   2.94
##  6      1          6     6        8.38    0.360   2.70
##  7      1          7     7        8.64    0.224   2.88
##  8      1          8     8        8.67    0.0712  2.70
##  9      1          9     9        8.41    0.0570  3.17
## 10      1         10    10        8.42    0.371   2.67
## # … with 990 more rows
```

---

```r
p.h1.long <- h.1 %>% 
gather_draws(b_Intercept, b_happy_c, sigma)
p.h1.long
```

```
## # A tibble: 3,000 × 5
## # Groups:   .variable [3]
##    .chain .iteration .draw .variable   .value
##     <int>      <int> <int> <chr>        <dbl>
##  1      1          1     1 b_Intercept   8.73
##  2      1          2     2 b_Intercept   8.36
##  3      1          3     3 b_Intercept   8.66
##  4      1          4     4 b_Intercept   8.15
##  5      1          5     5 b_Intercept   8.88
##  6      1          6     6 b_Intercept   8.38
##  7      1          7     7 b_Intercept   8.64
##  8      1          8     8 b_Intercept   8.67
##  9      1          9     9 b_Intercept   8.41
## 10      1         10    10 b_Intercept   8.42
## # … with 2,990 more rows
```
…
```r
  ph2.1 <- h.2 %>% 
  spread_draws(b_Intercept, b_mood.group.dtx, sigma) %>% 
  rename(control = b_Intercept) %>% 
  mutate(tx = control + b_mood.group.dtx) %>% 
  select(control, tx, sigma) %>% 
  mutate(`difference` = tx - control) %>%  # or just b_mood.group.dtx
  mutate(`std.effect` =  difference / sigma) 
  ph2.1
```

```
## # A tibble: 1,000 × 5
##    control    tx sigma difference std.effect
##      <dbl> <dbl> <dbl>      <dbl>      <dbl>
##  1    8.02  8.94  2.76      0.921     0.334 
##  2    8.56  8.90  2.89      0.339     0.117 
##  3    8.54  8.84  2.95      0.304     0.103 
##  4    8.35  8.69  2.99      0.336     0.113 
##  5    7.75  8.96  2.72      1.21      0.445 
##  6    8.11  8.55  2.91      0.433     0.149 
##  7    7.69  8.46  2.78      0.771     0.278 
##  8    8.72  8.89  2.83      0.173     0.0610
##  9    8.52  8.08  2.62     -0.442    -0.169 
## 10    8.32  8.65  3.05      0.329     0.108 
## # … with 990 more rows
```
…
post.h7 
```

```
## # A tibble: 4,000 × 7
##    Control    Tx `Sigma Control` `Sigma Tx` Differences `Sigma Difference`
##      <dbl> <dbl>           <dbl>      <dbl>       <dbl>              <dbl>
##  1    7.98  8.63            2.31       2.54       0.652             0.233 
##  2    8.14  8.79            2.61       2.89       0.653             0.274 
##  3    8.11  9.02            2.47       2.79       0.912             0.315 
##  4    7.83  8.74            3.01       2.46       0.912            -0.545 
##  5    8.17  8.65            2.54       3.00       0.487             0.463 
##  6    7.82  8.62            2.85       2.76       0.799            -0.0883
##  7    7.28  8.76            3.01       2.68       1.48             -0.322 
##  8    8.11  8.74            2.79       2.75       0.623            -0.0455
##  9    7.74  8.81            2.58       2.63       1.07              0.0556
## 10    7.81  8.80            3.06       2.58       0.995            -0.487 
## # … with 3,990 more rows, and 1 more variable: Effect Size <dbl>
```
…
